{
  "links": [
    {
      "name": "sections.home",
      "icon": "mdi-home",
      "url": "/"
    },
    {
      "name": "sections.projects",
      "icon": "mdi-briefcase",
      "url": "/projects"
    }
  ]
}
