{
  "skills": [
    {
      "icon": "mdi-vuejs",
      "title": "Vue.js",
      "color": "#41b883",
      "url": "https://vuejs.org"
    },
    {
      "icon": "mdi-nuxt",
      "title": "Nuxt.js",
      "color": "#58b2bb",
      "url": "https://nuxtjs.org"
    },
    {
      "icon": "mdi-language-javascript",
      "title": "Javascript",
      "color": "#f0db4f",
      "url": "https://javascript.com"
    },
    {
      "icon": "mdi-nodejs",
      "title": "Node.js",
      "color": "#68a063",
      "url": "https://nodejs.org/en/"
    },
    {
      "icon": "mdi-language-java",
      "title": "Java",
      "color": "#5382a1",
      "url": "https://java.com"
    },
    {
      "icon": "mdi-language-html5",
      "title": "HTML5",
      "color": "#f06529",
      "url": "https://html.com"
    },
    {
      "icon": "mdi-language-css3",
      "title": "CSS3",
      "color": "#2965f1",
      "url": "https://css3.com"
    },
    {
      "icon": "mdi-docker",
      "title": "Docker",
      "color": "#0db7ed",
      "url": "https://docker.com"
    },
    {
      "icon": "mdi-wordpress",
      "title": "Wordpress",
      "color": "#21759b",
      "url": "https://wordpress.org"
    },
    {
      "icon": "mdi-firebase",
      "title": "Google firebase",
      "color": "#FFA611",
      "url": "https://firebase.google.com"
    },
    {
      "icon": "mdi-git",
      "title": "Git",
      "color": "#f34f29",
      "url": "https://git-scm.com"
    },
    {
      "icon": "mdi-npm",
      "title": "Npm packages",
      "color": "#cc3534",
      "url": "https://npmjs.com"
    }
  ]
}
